^C:\PROGRAM FILES (X86)\MICROSOFT VISUAL STUDIO 10.0\VC\INCLUDE\MANIFEST\DPIAWARE.MANIFEST|D:\GITHUBANDGITLAB\TFT_CONTROL_SOFTWARE\1.0\WIN32\SOURCE\RAYANCE_WRAP\RELEASE\RAYANCE_DETECTOR_LIB.DLL.INTERMEDIATE.MANIFEST
C:\PROGRAM FILES (X86)\MICROSOFT VISUAL STUDIO 10.0\VC\INCLUDE\MANIFEST\DPIAWARE.MANIFEST
C:\WINDOWS\REGISTRATION\R00000000000D.CLB
C:\WINDOWS\MICROSOFT.NET\FRAMEWORK\V2.0.50727\MSCORWKS.DLL
C:\WINDOWS\MICROSOFT.NET\FRAMEWORK\V4.0.30319\CLR.DLL
C:\PROGRAM FILES (X86)\MICROSOFT SDKS\WINDOWS\V7.0A\BIN\MT.EXE.CONFIG
D:\GITHUBANDGITLAB\TFT_CONTROL_SOFTWARE\1.0\WIN32\SOURCE\RELEASE\RAYANCE_DETECTOR_LIB.DLL
