^E:\RP_CODE\1717\0.5\0.3.1-20180507T083729Z-001\0.3.1\TFT_CONTROL_SOFTWARE\1.0\WIN32\SOURCE\KY5_CONTROL\STDAFX.CPP
E:\RP_CODE\1717\0.5\0.3.1-20180507T083729Z-001\0.3.1\TFT_CONTROL_SOFTWARE\1.0\WIN32\SOURCE\KY5_CONTROL\X64\RELEASE\1717SCC_PULT.PCH
E:\RP_CODE\1717\0.5\0.3.1-20180507T083729Z-001\0.3.1\TFT_CONTROL_SOFTWARE\1.0\WIN32\SOURCE\KY5_CONTROL\X64\RELEASE\STDAFX.OBJ
E:\RP_CODE\1717\0.5\0.3.1-20180507T083729Z-001\0.3.1\TFT_CONTROL_SOFTWARE\1.0\WIN32\SOURCE\KY5_CONTROL\X64\RELEASE\VC100.PDB
^E:\RP_CODE\1717\0.5\0.3.1-20180507T083729Z-001\0.3.1\TFT_CONTROL_SOFTWARE\1.0\WIN32\SOURCE\KY5_CONTROL\1717SCC_PULT.CPP|E:\RP_CODE\1717\0.5\0.3.1-20180507T083729Z-001\0.3.1\TFT_CONTROL_SOFTWARE\1.0\WIN32\SOURCE\KY5_CONTROL\ASSEMBLYINFO.CPP|E:\RP_CODE\1717\0.5\0.3.1-20180507T083729Z-001\0.3.1\TFT_CONTROL_SOFTWARE\1.0\WIN32\SOURCE\KY5_CONTROL\CALIBRATIONPARAMETRSVIEW.CPP|E:\RP_CODE\1717\0.5\0.3.1-20180507T083729Z-001\0.3.1\TFT_CONTROL_SOFTWARE\1.0\WIN32\SOURCE\KY5_CONTROL\DAVINCHYSETUP.CPP|E:\RP_CODE\1717\0.5\0.3.1-20180507T083729Z-001\0.3.1\TFT_CONTROL_SOFTWARE\1.0\WIN32\SOURCE\KY5_CONTROL\DEVBASECOMMANDS.CPP|E:\RP_CODE\1717\0.5\0.3.1-20180507T083729Z-001\0.3.1\TFT_CONTROL_SOFTWARE\1.0\WIN32\SOURCE\KY5_CONTROL\EXSPOSITIONPARAMS.CPP|E:\RP_CODE\1717\0.5\0.3.1-20180507T083729Z-001\0.3.1\TFT_CONTROL_SOFTWARE\1.0\WIN32\SOURCE\KY5_CONTROL\FTDI_ACTIONINFO.CPP|E:\RP_CODE\1717\0.5\0.3.1-20180507T083729Z-001\0.3.1\TFT_CONTROL_SOFTWARE\1.0\WIN32\SOURCE\KY5_CONTROL\IKY5_COMMANDS.CPP|E:\RP_CODE\1717\0.5\0.3.1-20180507T083729Z-001\0.3.1\TFT_CONTROL_SOFTWARE\1.0\WIN32\SOURCE\KY5_CONTROL\IMAGEPROCESS\CCD_AVERAGE.CPP|E:\RP_CODE\1717\0.5\0.3.1-20180507T083729Z-001\0.3.1\TFT_CONTROL_SOFTWARE\1.0\WIN32\SOURCE\KY5_CONTROL\IMAGEPROCESS\CCD_CALIBRATE.CPP|E:\RP_CODE\1717\0.5\0.3.1-20180507T083729Z-001\0.3.1\TFT_CONTROL_SOFTWARE\1.0\WIN32\SOURCE\KY5_CONTROL\IMAGEPROCESS\CCD_FITSTRUCT.CPP|E:\RP_CODE\1717\0.5\0.3.1-20180507T083729Z-001\0.3.1\TFT_CONTROL_SOFTWARE\1.0\WIN32\SOURCE\KY5_CONTROL\IMAGEPROCESS\CCD_IMGFILE.CPP|E:\RP_CODE\1717\0.5\0.3.1-20180507T083729Z-001\0.3.1\TFT_CONTROL_SOFTWARE\1.0\WIN32\SOURCE\KY5_CONTROL\IMAGEPROCESS\CCD_SUPPRESS.CPP|E:\RP_CODE\1717\0.5\0.3.1-20180507T083729Z-001\0.3.1\TFT_CONTROL_SOFTWARE\1.0\WIN32\SOURCE\KY5_CONTROL\IMAGEPROCESS\FLR_P.CPP|E:\RP_CODE\1717\0.5\0.3.1-20180507T083729Z-001\0.3.1\TFT_CONTROL_SOFTWARE\1.0\WIN32\SOURCE\KY5_CONTROL\IMAGEPROCESS\POSIZ_RECT.CPP|E:\RP_CODE\1717\0.5\0.3.1-20180507T083729Z-001\0.3.1\TFT_CONTROL_SOFTWARE\1.0\WIN32\SOURCE\KY5_CONTROL\IMAGEPROCESS\WORD_IMAGE.CPP|E:\RP_CODE\1717\0.5\0.3.1-20180507T083729Z-001\0.3.1\TFT_CONTROL_SOFTWARE\1.0\WIN32\SOURCE\KY5_CONTROL\KY5_COMMANDS_19200.CPP|E:\RP_CODE\1717\0.5\0.3.1-20180507T083729Z-001\0.3.1\TFT_CONTROL_SOFTWARE\1.0\WIN32\SOURCE\KY5_CONTROL\MXCOMM.CPP|E:\RP_CODE\1717\0.5\0.3.1-20180507T083729Z-001\0.3.1\TFT_CONTROL_SOFTWARE\1.0\WIN32\SOURCE\KY5_CONTROL\STOPWATCH_WIN.CPP
E:\RP_CODE\1717\0.5\0.3.1-20180507T083729Z-001\0.3.1\TFT_CONTROL_SOFTWARE\1.0\WIN32\SOURCE\KY5_CONTROL\X64\RELEASE\DAVINCHYSETUP.OBJ
E:\RP_CODE\1717\0.5\0.3.1-20180507T083729Z-001\0.3.1\TFT_CONTROL_SOFTWARE\1.0\WIN32\SOURCE\KY5_CONTROL\X64\RELEASE\FTDI_ACTIONINFO.OBJ
E:\RP_CODE\1717\0.5\0.3.1-20180507T083729Z-001\0.3.1\TFT_CONTROL_SOFTWARE\1.0\WIN32\SOURCE\KY5_CONTROL\X64\RELEASE\CCD_FITSTRUCT.OBJ
E:\RP_CODE\1717\0.5\0.3.1-20180507T083729Z-001\0.3.1\TFT_CONTROL_SOFTWARE\1.0\WIN32\SOURCE\KY5_CONTROL\X64\RELEASE\FLR_P.OBJ
E:\RP_CODE\1717\0.5\0.3.1-20180507T083729Z-001\0.3.1\TFT_CONTROL_SOFTWARE\1.0\WIN32\SOURCE\KY5_CONTROL\X64\RELEASE\1717SCC_PULT.OBJ
E:\RP_CODE\1717\0.5\0.3.1-20180507T083729Z-001\0.3.1\TFT_CONTROL_SOFTWARE\1.0\WIN32\SOURCE\KY5_CONTROL\X64\RELEASE\CCD_CALIBRATE.OBJ
E:\RP_CODE\1717\0.5\0.3.1-20180507T083729Z-001\0.3.1\TFT_CONTROL_SOFTWARE\1.0\WIN32\SOURCE\KY5_CONTROL\X64\RELEASE\KY5_COMMANDS_19200.OBJ
E:\RP_CODE\1717\0.5\0.3.1-20180507T083729Z-001\0.3.1\TFT_CONTROL_SOFTWARE\1.0\WIN32\SOURCE\KY5_CONTROL\X64\RELEASE\STOPWATCH_WIN.OBJ
E:\RP_CODE\1717\0.5\0.3.1-20180507T083729Z-001\0.3.1\TFT_CONTROL_SOFTWARE\1.0\WIN32\SOURCE\KY5_CONTROL\X64\RELEASE\CALIBRATIONPARAMETRSVIEW.OBJ
E:\RP_CODE\1717\0.5\0.3.1-20180507T083729Z-001\0.3.1\TFT_CONTROL_SOFTWARE\1.0\WIN32\SOURCE\KY5_CONTROL\X64\RELEASE\EXSPOSITIONPARAMS.OBJ
E:\RP_CODE\1717\0.5\0.3.1-20180507T083729Z-001\0.3.1\TFT_CONTROL_SOFTWARE\1.0\WIN32\SOURCE\KY5_CONTROL\X64\RELEASE\IKY5_COMMANDS.OBJ
E:\RP_CODE\1717\0.5\0.3.1-20180507T083729Z-001\0.3.1\TFT_CONTROL_SOFTWARE\1.0\WIN32\SOURCE\KY5_CONTROL\X64\RELEASE\CCD_IMGFILE.OBJ
E:\RP_CODE\1717\0.5\0.3.1-20180507T083729Z-001\0.3.1\TFT_CONTROL_SOFTWARE\1.0\WIN32\SOURCE\KY5_CONTROL\X64\RELEASE\CCD_SUPPRESS.OBJ
E:\RP_CODE\1717\0.5\0.3.1-20180507T083729Z-001\0.3.1\TFT_CONTROL_SOFTWARE\1.0\WIN32\SOURCE\KY5_CONTROL\X64\RELEASE\MXCOMM.OBJ
E:\RP_CODE\1717\0.5\0.3.1-20180507T083729Z-001\0.3.1\TFT_CONTROL_SOFTWARE\1.0\WIN32\SOURCE\KY5_CONTROL\X64\RELEASE\ASSEMBLYINFO.OBJ
E:\RP_CODE\1717\0.5\0.3.1-20180507T083729Z-001\0.3.1\TFT_CONTROL_SOFTWARE\1.0\WIN32\SOURCE\KY5_CONTROL\X64\RELEASE\DEVBASECOMMANDS.OBJ
E:\RP_CODE\1717\0.5\0.3.1-20180507T083729Z-001\0.3.1\TFT_CONTROL_SOFTWARE\1.0\WIN32\SOURCE\KY5_CONTROL\X64\RELEASE\CCD_AVERAGE.OBJ
E:\RP_CODE\1717\0.5\0.3.1-20180507T083729Z-001\0.3.1\TFT_CONTROL_SOFTWARE\1.0\WIN32\SOURCE\KY5_CONTROL\X64\RELEASE\POSIZ_RECT.OBJ
E:\RP_CODE\1717\0.5\0.3.1-20180507T083729Z-001\0.3.1\TFT_CONTROL_SOFTWARE\1.0\WIN32\SOURCE\KY5_CONTROL\X64\RELEASE\WORD_IMAGE.OBJ
^E:\RP_CODE\1717\0.5\0.3.1-20180507T083729Z-001\0.3.1\TFT_CONTROL_SOFTWARE\1.0\WIN32\SOURCE\KY5_CONTROL\ASSEMBLYINFO.CPP
E:\RP_CODE\1717\0.5\0.3.1-20180507T083729Z-001\0.3.1\TFT_CONTROL_SOFTWARE\1.0\WIN32\SOURCE\KY5_CONTROL\X64\RELEASE\VC100.PDB
^E:\RP_CODE\1717\0.5\0.3.1-20180507T083729Z-001\0.3.1\TFT_CONTROL_SOFTWARE\1.0\WIN32\SOURCE\KY5_CONTROL\CALIBRATIONPARAMETRSVIEW.CPP
E:\RP_CODE\1717\0.5\0.3.1-20180507T083729Z-001\0.3.1\TFT_CONTROL_SOFTWARE\1.0\WIN32\SOURCE\KY5_CONTROL\X64\RELEASE\VC100.PDB
^E:\RP_CODE\1717\0.5\0.3.1-20180507T083729Z-001\0.3.1\TFT_CONTROL_SOFTWARE\1.0\WIN32\SOURCE\KY5_CONTROL\1717SCC_PULT.CPP
E:\RP_CODE\1717\0.5\0.3.1-20180507T083729Z-001\0.3.1\TFT_CONTROL_SOFTWARE\1.0\WIN32\SOURCE\KY5_CONTROL\X64\RELEASE\VC100.PDB
^E:\RP_CODE\1717\0.5\0.3.1-20180507T083729Z-001\0.3.1\TFT_CONTROL_SOFTWARE\1.0\WIN32\SOURCE\KY5_CONTROL\DAVINCHYSETUP.CPP
E:\RP_CODE\1717\0.5\0.3.1-20180507T083729Z-001\0.3.1\TFT_CONTROL_SOFTWARE\1.0\WIN32\SOURCE\KY5_CONTROL\X64\RELEASE\VC100.PDB
^E:\RP_CODE\1717\0.5\0.3.1-20180507T083729Z-001\0.3.1\TFT_CONTROL_SOFTWARE\1.0\WIN32\SOURCE\KY5_CONTROL\DEVBASECOMMANDS.CPP
E:\RP_CODE\1717\0.5\0.3.1-20180507T083729Z-001\0.3.1\TFT_CONTROL_SOFTWARE\1.0\WIN32\SOURCE\KY5_CONTROL\X64\RELEASE\VC100.PDB
^E:\RP_CODE\1717\0.5\0.3.1-20180507T083729Z-001\0.3.1\TFT_CONTROL_SOFTWARE\1.0\WIN32\SOURCE\KY5_CONTROL\EXSPOSITIONPARAMS.CPP
E:\RP_CODE\1717\0.5\0.3.1-20180507T083729Z-001\0.3.1\TFT_CONTROL_SOFTWARE\1.0\WIN32\SOURCE\KY5_CONTROL\X64\RELEASE\VC100.PDB
^E:\RP_CODE\1717\0.5\0.3.1-20180507T083729Z-001\0.3.1\TFT_CONTROL_SOFTWARE\1.0\WIN32\SOURCE\KY5_CONTROL\FTDI_ACTIONINFO.CPP
E:\RP_CODE\1717\0.5\0.3.1-20180507T083729Z-001\0.3.1\TFT_CONTROL_SOFTWARE\1.0\WIN32\SOURCE\KY5_CONTROL\X64\RELEASE\VC100.PDB
^E:\RP_CODE\1717\0.5\0.3.1-20180507T083729Z-001\0.3.1\TFT_CONTROL_SOFTWARE\1.0\WIN32\SOURCE\KY5_CONTROL\IKY5_COMMANDS.CPP
E:\RP_CODE\1717\0.5\0.3.1-20180507T083729Z-001\0.3.1\TFT_CONTROL_SOFTWARE\1.0\WIN32\SOURCE\KY5_CONTROL\X64\RELEASE\VC100.PDB
^E:\RP_CODE\1717\0.5\0.3.1-20180507T083729Z-001\0.3.1\TFT_CONTROL_SOFTWARE\1.0\WIN32\SOURCE\KY5_CONTROL\IMAGEPROCESS\CCD_AVERAGE.CPP
E:\RP_CODE\1717\0.5\0.3.1-20180507T083729Z-001\0.3.1\TFT_CONTROL_SOFTWARE\1.0\WIN32\SOURCE\KY5_CONTROL\X64\RELEASE\VC100.PDB
^E:\RP_CODE\1717\0.5\0.3.1-20180507T083729Z-001\0.3.1\TFT_CONTROL_SOFTWARE\1.0\WIN32\SOURCE\KY5_CONTROL\IMAGEPROCESS\CCD_CALIBRATE.CPP
E:\RP_CODE\1717\0.5\0.3.1-20180507T083729Z-001\0.3.1\TFT_CONTROL_SOFTWARE\1.0\WIN32\SOURCE\KY5_CONTROL\X64\RELEASE\VC100.PDB
^E:\RP_CODE\1717\0.5\0.3.1-20180507T083729Z-001\0.3.1\TFT_CONTROL_SOFTWARE\1.0\WIN32\SOURCE\KY5_CONTROL\IMAGEPROCESS\CCD_FITSTRUCT.CPP
E:\RP_CODE\1717\0.5\0.3.1-20180507T083729Z-001\0.3.1\TFT_CONTROL_SOFTWARE\1.0\WIN32\SOURCE\KY5_CONTROL\X64\RELEASE\VC100.PDB
^E:\RP_CODE\1717\0.5\0.3.1-20180507T083729Z-001\0.3.1\TFT_CONTROL_SOFTWARE\1.0\WIN32\SOURCE\KY5_CONTROL\IMAGEPROCESS\CCD_IMGFILE.CPP
E:\RP_CODE\1717\0.5\0.3.1-20180507T083729Z-001\0.3.1\TFT_CONTROL_SOFTWARE\1.0\WIN32\SOURCE\KY5_CONTROL\X64\RELEASE\VC100.PDB
^E:\RP_CODE\1717\0.5\0.3.1-20180507T083729Z-001\0.3.1\TFT_CONTROL_SOFTWARE\1.0\WIN32\SOURCE\KY5_CONTROL\IMAGEPROCESS\CCD_SUPPRESS.CPP
E:\RP_CODE\1717\0.5\0.3.1-20180507T083729Z-001\0.3.1\TFT_CONTROL_SOFTWARE\1.0\WIN32\SOURCE\KY5_CONTROL\X64\RELEASE\VC100.PDB
^E:\RP_CODE\1717\0.5\0.3.1-20180507T083729Z-001\0.3.1\TFT_CONTROL_SOFTWARE\1.0\WIN32\SOURCE\KY5_CONTROL\IMAGEPROCESS\FLR_P.CPP
E:\RP_CODE\1717\0.5\0.3.1-20180507T083729Z-001\0.3.1\TFT_CONTROL_SOFTWARE\1.0\WIN32\SOURCE\KY5_CONTROL\X64\RELEASE\VC100.PDB
^E:\RP_CODE\1717\0.5\0.3.1-20180507T083729Z-001\0.3.1\TFT_CONTROL_SOFTWARE\1.0\WIN32\SOURCE\KY5_CONTROL\IMAGEPROCESS\POSIZ_RECT.CPP
E:\RP_CODE\1717\0.5\0.3.1-20180507T083729Z-001\0.3.1\TFT_CONTROL_SOFTWARE\1.0\WIN32\SOURCE\KY5_CONTROL\X64\RELEASE\VC100.PDB
^E:\RP_CODE\1717\0.5\0.3.1-20180507T083729Z-001\0.3.1\TFT_CONTROL_SOFTWARE\1.0\WIN32\SOURCE\KY5_CONTROL\IMAGEPROCESS\WORD_IMAGE.CPP
E:\RP_CODE\1717\0.5\0.3.1-20180507T083729Z-001\0.3.1\TFT_CONTROL_SOFTWARE\1.0\WIN32\SOURCE\KY5_CONTROL\X64\RELEASE\VC100.PDB
^E:\RP_CODE\1717\0.5\0.3.1-20180507T083729Z-001\0.3.1\TFT_CONTROL_SOFTWARE\1.0\WIN32\SOURCE\KY5_CONTROL\KY5_COMMANDS_19200.CPP
E:\RP_CODE\1717\0.5\0.3.1-20180507T083729Z-001\0.3.1\TFT_CONTROL_SOFTWARE\1.0\WIN32\SOURCE\KY5_CONTROL\X64\RELEASE\VC100.PDB
^E:\RP_CODE\1717\0.5\0.3.1-20180507T083729Z-001\0.3.1\TFT_CONTROL_SOFTWARE\1.0\WIN32\SOURCE\KY5_CONTROL\MXCOMM.CPP
E:\RP_CODE\1717\0.5\0.3.1-20180507T083729Z-001\0.3.1\TFT_CONTROL_SOFTWARE\1.0\WIN32\SOURCE\KY5_CONTROL\X64\RELEASE\VC100.PDB
^E:\RP_CODE\1717\0.5\0.3.1-20180507T083729Z-001\0.3.1\TFT_CONTROL_SOFTWARE\1.0\WIN32\SOURCE\KY5_CONTROL\STOPWATCH_WIN.CPP
E:\RP_CODE\1717\0.5\0.3.1-20180507T083729Z-001\0.3.1\TFT_CONTROL_SOFTWARE\1.0\WIN32\SOURCE\KY5_CONTROL\X64\RELEASE\VC100.PDB
^C:\USERS\MOLOTALIEV\APPDATA\LOCAL\TEMP\.NETFRAMEWORK,VERSION=V4.0.ASSEMBLYATTRIBUTES.CPP
E:\RP_CODE\1717\0.5\0.3.1-20180507T083729Z-001\0.3.1\TFT_CONTROL_SOFTWARE\1.0\WIN32\SOURCE\KY5_CONTROL\X64\RELEASE\.NETFRAMEWORK,VERSION=V4.0.ASSEMBLYATTRIBUTES.OBJ
E:\RP_CODE\1717\0.5\0.3.1-20180507T083729Z-001\0.3.1\TFT_CONTROL_SOFTWARE\1.0\WIN32\SOURCE\KY5_CONTROL\X64\RELEASE\VC100.PDB
^D:\TMP_SOURCE\TFT_CONTROL_SOFTWARE_0_6\TFT_CONTROL_SOFTWARE\1.0\WIN32\SOURCE\KY5_CONTROL\STDAFX.CPP
D:\TMP_SOURCE\TFT_CONTROL_SOFTWARE_0_6\TFT_CONTROL_SOFTWARE\1.0\WIN32\SOURCE\KY5_CONTROL\X64\RELEASE\1717SCC_PULT.PCH
D:\TMP_SOURCE\TFT_CONTROL_SOFTWARE_0_6\TFT_CONTROL_SOFTWARE\1.0\WIN32\SOURCE\KY5_CONTROL\X64\RELEASE\STDAFX.OBJ
D:\TMP_SOURCE\TFT_CONTROL_SOFTWARE_0_6\TFT_CONTROL_SOFTWARE\1.0\WIN32\SOURCE\KY5_CONTROL\X64\RELEASE\VC100.PDB
^D:\TMP_SOURCE\TFT_CONTROL_SOFTWARE_0_6\TFT_CONTROL_SOFTWARE\1.0\WIN32\SOURCE\KY5_CONTROL\1717SCC_PULT.CPP|D:\TMP_SOURCE\TFT_CONTROL_SOFTWARE_0_6\TFT_CONTROL_SOFTWARE\1.0\WIN32\SOURCE\KY5_CONTROL\ASSEMBLYINFO.CPP|D:\TMP_SOURCE\TFT_CONTROL_SOFTWARE_0_6\TFT_CONTROL_SOFTWARE\1.0\WIN32\SOURCE\KY5_CONTROL\CALIBRATIONCONFIG.CPP|D:\TMP_SOURCE\TFT_CONTROL_SOFTWARE_0_6\TFT_CONTROL_SOFTWARE\1.0\WIN32\SOURCE\KY5_CONTROL\CALIBRATIONPARAMETRSVIEW.CPP|D:\TMP_SOURCE\TFT_CONTROL_SOFTWARE_0_6\TFT_CONTROL_SOFTWARE\1.0\WIN32\SOURCE\KY5_CONTROL\DAVINCHYSETUP.CPP|D:\TMP_SOURCE\TFT_CONTROL_SOFTWARE_0_6\TFT_CONTROL_SOFTWARE\1.0\WIN32\SOURCE\KY5_CONTROL\DEVBASECOMMANDS.CPP|D:\TMP_SOURCE\TFT_CONTROL_SOFTWARE_0_6\TFT_CONTROL_SOFTWARE\1.0\WIN32\SOURCE\KY5_CONTROL\EXSPOSITIONPARAMS.CPP|D:\TMP_SOURCE\TFT_CONTROL_SOFTWARE_0_6\TFT_CONTROL_SOFTWARE\1.0\WIN32\SOURCE\KY5_CONTROL\FTDI_ACTIONINFO.CPP|D:\TMP_SOURCE\TFT_CONTROL_SOFTWARE_0_6\TFT_CONTROL_SOFTWARE\1.0\WIN32\SOURCE\KY5_CONTROL\IKY5_COMMANDS.CPP|D:\TMP_SOURCE\TFT_CONTROL_SOFTWARE_0_6\TFT_CONTROL_SOFTWARE\1.0\WIN32\SOURCE\KY5_CONTROL\IMAGEPROCESS\CCD_AVERAGE.CPP|D:\TMP_SOURCE\TFT_CONTROL_SOFTWARE_0_6\TFT_CONTROL_SOFTWARE\1.0\WIN32\SOURCE\KY5_CONTROL\IMAGEPROCESS\CCD_CALIBRATE.CPP|D:\TMP_SOURCE\TFT_CONTROL_SOFTWARE_0_6\TFT_CONTROL_SOFTWARE\1.0\WIN32\SOURCE\KY5_CONTROL\IMAGEPROCESS\CCD_FITSTRUCT.CPP|D:\TMP_SOURCE\TFT_CONTROL_SOFTWARE_0_6\TFT_CONTROL_SOFTWARE\1.0\WIN32\SOURCE\KY5_CONTROL\IMAGEPROCESS\CCD_IMGFILE.CPP|D:\TMP_SOURCE\TFT_CONTROL_SOFTWARE_0_6\TFT_CONTROL_SOFTWARE\1.0\WIN32\SOURCE\KY5_CONTROL\IMAGEPROCESS\CCD_SUPPRESS.CPP|D:\TMP_SOURCE\TFT_CONTROL_SOFTWARE_0_6\TFT_CONTROL_SOFTWARE\1.0\WIN32\SOURCE\KY5_CONTROL\IMAGEPROCESS\FLR_P.CPP|D:\TMP_SOURCE\TFT_CONTROL_SOFTWARE_0_6\TFT_CONTROL_SOFTWARE\1.0\WIN32\SOURCE\KY5_CONTROL\IMAGEPROCESS\POSIZ_RECT.CPP|D:\TMP_SOURCE\TFT_CONTROL_SOFTWARE_0_6\TFT_CONTROL_SOFTWARE\1.0\WIN32\SOURCE\KY5_CONTROL\IMAGEPROCESS\WORD_IMAGE.CPP|D:\TMP_SOURCE\TFT_CONTROL_SOFTWARE_0_6\TFT_CONTROL_SOFTWARE\1.0\WIN32\SOURCE\KY5_CONTROL\KY5_COMMANDS_19200.CPP|D:\TMP_SOURCE\TFT_CONTROL_SOFTWARE_0_6\TFT_CONTROL_SOFTWARE\1.0\WIN32\SOURCE\KY5_CONTROL\MXCOMM.CPP|D:\TMP_SOURCE\TFT_CONTROL_SOFTWARE_0_6\TFT_CONTROL_SOFTWARE\1.0\WIN32\SOURCE\KY5_CONTROL\PULTCONFIG.CPP|D:\TMP_SOURCE\TFT_CONTROL_SOFTWARE_0_6\TFT_CONTROL_SOFTWARE\1.0\WIN32\SOURCE\KY5_CONTROL\STOPWATCH_WIN.CPP
D:\TMP_SOURCE\TFT_CONTROL_SOFTWARE_0_6\TFT_CONTROL_SOFTWARE\1.0\WIN32\SOURCE\KY5_CONTROL\X64\RELEASE\CALIBRATIONPARAMETRSVIEW.OBJ
D:\TMP_SOURCE\TFT_CONTROL_SOFTWARE_0_6\TFT_CONTROL_SOFTWARE\1.0\WIN32\SOURCE\KY5_CONTROL\X64\RELEASE\FLR_P.OBJ
D:\TMP_SOURCE\TFT_CONTROL_SOFTWARE_0_6\TFT_CONTROL_SOFTWARE\1.0\WIN32\SOURCE\KY5_CONTROL\X64\RELEASE\CALIBRATIONCONFIG.OBJ
D:\TMP_SOURCE\TFT_CONTROL_SOFTWARE_0_6\TFT_CONTROL_SOFTWARE\1.0\WIN32\SOURCE\KY5_CONTROL\X64\RELEASE\CCD_SUPPRESS.OBJ
D:\TMP_SOURCE\TFT_CONTROL_SOFTWARE_0_6\TFT_CONTROL_SOFTWARE\1.0\WIN32\SOURCE\KY5_CONTROL\X64\RELEASE\CCD_FITSTRUCT.OBJ
D:\TMP_SOURCE\TFT_CONTROL_SOFTWARE_0_6\TFT_CONTROL_SOFTWARE\1.0\WIN32\SOURCE\KY5_CONTROL\X64\RELEASE\CCD_AVERAGE.OBJ
D:\TMP_SOURCE\TFT_CONTROL_SOFTWARE_0_6\TFT_CONTROL_SOFTWARE\1.0\WIN32\SOURCE\KY5_CONTROL\X64\RELEASE\ASSEMBLYINFO.OBJ
D:\TMP_SOURCE\TFT_CONTROL_SOFTWARE_0_6\TFT_CONTROL_SOFTWARE\1.0\WIN32\SOURCE\KY5_CONTROL\X64\RELEASE\CCD_IMGFILE.OBJ
D:\TMP_SOURCE\TFT_CONTROL_SOFTWARE_0_6\TFT_CONTROL_SOFTWARE\1.0\WIN32\SOURCE\KY5_CONTROL\X64\RELEASE\WORD_IMAGE.OBJ
D:\TMP_SOURCE\TFT_CONTROL_SOFTWARE_0_6\TFT_CONTROL_SOFTWARE\1.0\WIN32\SOURCE\KY5_CONTROL\X64\RELEASE\CCD_CALIBRATE.OBJ
D:\TMP_SOURCE\TFT_CONTROL_SOFTWARE_0_6\TFT_CONTROL_SOFTWARE\1.0\WIN32\SOURCE\KY5_CONTROL\X64\RELEASE\DEVBASECOMMANDS.OBJ
D:\TMP_SOURCE\TFT_CONTROL_SOFTWARE_0_6\TFT_CONTROL_SOFTWARE\1.0\WIN32\SOURCE\KY5_CONTROL\X64\RELEASE\STOPWATCH_WIN.OBJ
D:\TMP_SOURCE\TFT_CONTROL_SOFTWARE_0_6\TFT_CONTROL_SOFTWARE\1.0\WIN32\SOURCE\KY5_CONTROL\X64\RELEASE\FTDI_ACTIONINFO.OBJ
D:\TMP_SOURCE\TFT_CONTROL_SOFTWARE_0_6\TFT_CONTROL_SOFTWARE\1.0\WIN32\SOURCE\KY5_CONTROL\X64\RELEASE\KY5_COMMANDS_19200.OBJ
D:\TMP_SOURCE\TFT_CONTROL_SOFTWARE_0_6\TFT_CONTROL_SOFTWARE\1.0\WIN32\SOURCE\KY5_CONTROL\X64\RELEASE\EXSPOSITIONPARAMS.OBJ
D:\TMP_SOURCE\TFT_CONTROL_SOFTWARE_0_6\TFT_CONTROL_SOFTWARE\1.0\WIN32\SOURCE\KY5_CONTROL\X64\RELEASE\POSIZ_RECT.OBJ
D:\TMP_SOURCE\TFT_CONTROL_SOFTWARE_0_6\TFT_CONTROL_SOFTWARE\1.0\WIN32\SOURCE\KY5_CONTROL\X64\RELEASE\MXCOMM.OBJ
D:\TMP_SOURCE\TFT_CONTROL_SOFTWARE_0_6\TFT_CONTROL_SOFTWARE\1.0\WIN32\SOURCE\KY5_CONTROL\X64\RELEASE\IKY5_COMMANDS.OBJ
D:\TMP_SOURCE\TFT_CONTROL_SOFTWARE_0_6\TFT_CONTROL_SOFTWARE\1.0\WIN32\SOURCE\KY5_CONTROL\X64\RELEASE\PULTCONFIG.OBJ
^D:\TMP_SOURCE\TFT_CONTROL_SOFTWARE_0_6\TFT_CONTROL_SOFTWARE\1.0\WIN32\SOURCE\KY5_CONTROL\ASSEMBLYINFO.CPP
D:\TMP_SOURCE\TFT_CONTROL_SOFTWARE_0_6\TFT_CONTROL_SOFTWARE\1.0\WIN32\SOURCE\KY5_CONTROL\X64\RELEASE\ASSEMBLYINFO.OBJ
^D:\TMP_SOURCE\TFT_CONTROL_SOFTWARE_0_6\TFT_CONTROL_SOFTWARE\1.0\WIN32\SOURCE\KY5_CONTROL\CALIBRATIONCONFIG.CPP
D:\TMP_SOURCE\TFT_CONTROL_SOFTWARE_0_6\TFT_CONTROL_SOFTWARE\1.0\WIN32\SOURCE\KY5_CONTROL\X64\RELEASE\CALIBRATIONCONFIG.OBJ
^D:\TMP_SOURCE\TFT_CONTROL_SOFTWARE_0_6\TFT_CONTROL_SOFTWARE\1.0\WIN32\SOURCE\KY5_CONTROL\CALIBRATIONPARAMETRSVIEW.CPP
D:\TMP_SOURCE\TFT_CONTROL_SOFTWARE_0_6\TFT_CONTROL_SOFTWARE\1.0\WIN32\SOURCE\KY5_CONTROL\X64\RELEASE\CALIBRATIONPARAMETRSVIEW.OBJ
^D:\TMP_SOURCE\TFT_CONTROL_SOFTWARE_0_6\TFT_CONTROL_SOFTWARE\1.0\WIN32\SOURCE\KY5_CONTROL\DEVBASECOMMANDS.CPP
D:\TMP_SOURCE\TFT_CONTROL_SOFTWARE_0_6\TFT_CONTROL_SOFTWARE\1.0\WIN32\SOURCE\KY5_CONTROL\X64\RELEASE\DEVBASECOMMANDS.OBJ
^D:\TMP_SOURCE\TFT_CONTROL_SOFTWARE_0_6\TFT_CONTROL_SOFTWARE\1.0\WIN32\SOURCE\KY5_CONTROL\EXSPOSITIONPARAMS.CPP
D:\TMP_SOURCE\TFT_CONTROL_SOFTWARE_0_6\TFT_CONTROL_SOFTWARE\1.0\WIN32\SOURCE\KY5_CONTROL\X64\RELEASE\EXSPOSITIONPARAMS.OBJ
^D:\TMP_SOURCE\TFT_CONTROL_SOFTWARE_0_6\TFT_CONTROL_SOFTWARE\1.0\WIN32\SOURCE\KY5_CONTROL\FTDI_ACTIONINFO.CPP
D:\TMP_SOURCE\TFT_CONTROL_SOFTWARE_0_6\TFT_CONTROL_SOFTWARE\1.0\WIN32\SOURCE\KY5_CONTROL\X64\RELEASE\FTDI_ACTIONINFO.OBJ
^D:\TMP_SOURCE\TFT_CONTROL_SOFTWARE_0_6\TFT_CONTROL_SOFTWARE\1.0\WIN32\SOURCE\KY5_CONTROL\IKY5_COMMANDS.CPP
D:\TMP_SOURCE\TFT_CONTROL_SOFTWARE_0_6\TFT_CONTROL_SOFTWARE\1.0\WIN32\SOURCE\KY5_CONTROL\X64\RELEASE\IKY5_COMMANDS.OBJ
^D:\TMP_SOURCE\TFT_CONTROL_SOFTWARE_0_6\TFT_CONTROL_SOFTWARE\1.0\WIN32\SOURCE\KY5_CONTROL\IMAGEPROCESS\CCD_AVERAGE.CPP
D:\TMP_SOURCE\TFT_CONTROL_SOFTWARE_0_6\TFT_CONTROL_SOFTWARE\1.0\WIN32\SOURCE\KY5_CONTROL\X64\RELEASE\CCD_AVERAGE.OBJ
^D:\TMP_SOURCE\TFT_CONTROL_SOFTWARE_0_6\TFT_CONTROL_SOFTWARE\1.0\WIN32\SOURCE\KY5_CONTROL\IMAGEPROCESS\CCD_CALIBRATE.CPP
D:\TMP_SOURCE\TFT_CONTROL_SOFTWARE_0_6\TFT_CONTROL_SOFTWARE\1.0\WIN32\SOURCE\KY5_CONTROL\X64\RELEASE\CCD_CALIBRATE.OBJ
^D:\TMP_SOURCE\TFT_CONTROL_SOFTWARE_0_6\TFT_CONTROL_SOFTWARE\1.0\WIN32\SOURCE\KY5_CONTROL\IMAGEPROCESS\CCD_FITSTRUCT.CPP
D:\TMP_SOURCE\TFT_CONTROL_SOFTWARE_0_6\TFT_CONTROL_SOFTWARE\1.0\WIN32\SOURCE\KY5_CONTROL\X64\RELEASE\CCD_FITSTRUCT.OBJ
^D:\TMP_SOURCE\TFT_CONTROL_SOFTWARE_0_6\TFT_CONTROL_SOFTWARE\1.0\WIN32\SOURCE\KY5_CONTROL\IMAGEPROCESS\CCD_IMGFILE.CPP
D:\TMP_SOURCE\TFT_CONTROL_SOFTWARE_0_6\TFT_CONTROL_SOFTWARE\1.0\WIN32\SOURCE\KY5_CONTROL\X64\RELEASE\CCD_IMGFILE.OBJ
^D:\TMP_SOURCE\TFT_CONTROL_SOFTWARE_0_6\TFT_CONTROL_SOFTWARE\1.0\WIN32\SOURCE\KY5_CONTROL\IMAGEPROCESS\CCD_SUPPRESS.CPP
D:\TMP_SOURCE\TFT_CONTROL_SOFTWARE_0_6\TFT_CONTROL_SOFTWARE\1.0\WIN32\SOURCE\KY5_CONTROL\X64\RELEASE\CCD_SUPPRESS.OBJ
^D:\TMP_SOURCE\TFT_CONTROL_SOFTWARE_0_6\TFT_CONTROL_SOFTWARE\1.0\WIN32\SOURCE\KY5_CONTROL\IMAGEPROCESS\FLR_P.CPP
D:\TMP_SOURCE\TFT_CONTROL_SOFTWARE_0_6\TFT_CONTROL_SOFTWARE\1.0\WIN32\SOURCE\KY5_CONTROL\X64\RELEASE\FLR_P.OBJ
^D:\TMP_SOURCE\TFT_CONTROL_SOFTWARE_0_6\TFT_CONTROL_SOFTWARE\1.0\WIN32\SOURCE\KY5_CONTROL\IMAGEPROCESS\POSIZ_RECT.CPP
D:\TMP_SOURCE\TFT_CONTROL_SOFTWARE_0_6\TFT_CONTROL_SOFTWARE\1.0\WIN32\SOURCE\KY5_CONTROL\X64\RELEASE\POSIZ_RECT.OBJ
^D:\TMP_SOURCE\TFT_CONTROL_SOFTWARE_0_6\TFT_CONTROL_SOFTWARE\1.0\WIN32\SOURCE\KY5_CONTROL\IMAGEPROCESS\WORD_IMAGE.CPP
D:\TMP_SOURCE\TFT_CONTROL_SOFTWARE_0_6\TFT_CONTROL_SOFTWARE\1.0\WIN32\SOURCE\KY5_CONTROL\X64\RELEASE\WORD_IMAGE.OBJ
^D:\TMP_SOURCE\TFT_CONTROL_SOFTWARE_0_6\TFT_CONTROL_SOFTWARE\1.0\WIN32\SOURCE\KY5_CONTROL\KY5_COMMANDS_19200.CPP
D:\TMP_SOURCE\TFT_CONTROL_SOFTWARE_0_6\TFT_CONTROL_SOFTWARE\1.0\WIN32\SOURCE\KY5_CONTROL\X64\RELEASE\KY5_COMMANDS_19200.OBJ
^D:\TMP_SOURCE\TFT_CONTROL_SOFTWARE_0_6\TFT_CONTROL_SOFTWARE\1.0\WIN32\SOURCE\KY5_CONTROL\MXCOMM.CPP
D:\TMP_SOURCE\TFT_CONTROL_SOFTWARE_0_6\TFT_CONTROL_SOFTWARE\1.0\WIN32\SOURCE\KY5_CONTROL\X64\RELEASE\MXCOMM.OBJ
^D:\TMP_SOURCE\TFT_CONTROL_SOFTWARE_0_6\TFT_CONTROL_SOFTWARE\1.0\WIN32\SOURCE\KY5_CONTROL\PULTCONFIG.CPP
D:\TMP_SOURCE\TFT_CONTROL_SOFTWARE_0_6\TFT_CONTROL_SOFTWARE\1.0\WIN32\SOURCE\KY5_CONTROL\X64\RELEASE\PULTCONFIG.OBJ
^D:\TMP_SOURCE\TFT_CONTROL_SOFTWARE_0_6\TFT_CONTROL_SOFTWARE\1.0\WIN32\SOURCE\KY5_CONTROL\STOPWATCH_WIN.CPP
D:\TMP_SOURCE\TFT_CONTROL_SOFTWARE_0_6\TFT_CONTROL_SOFTWARE\1.0\WIN32\SOURCE\KY5_CONTROL\X64\RELEASE\STOPWATCH_WIN.OBJ
^D:\GITHUBANDGITLAB\TFT_CONTROL_SOFTWARE\1.0\WIN32\SOURCE\1717SCC_PULT\STDAFX.CPP
D:\GITHUBANDGITLAB\TFT_CONTROL_SOFTWARE\1.0\WIN32\SOURCE\1717SCC_PULT\X64\RELEASE\1717SCC_PULT.PCH
D:\GITHUBANDGITLAB\TFT_CONTROL_SOFTWARE\1.0\WIN32\SOURCE\1717SCC_PULT\X64\RELEASE\STDAFX.OBJ
D:\GITHUBANDGITLAB\TFT_CONTROL_SOFTWARE\1.0\WIN32\SOURCE\1717SCC_PULT\X64\RELEASE\VC100.PDB
^D:\GITHUBANDGITLAB\TFT_CONTROL_SOFTWARE\1.0\WIN32\SOURCE\1717SCC_PULT\1717SCC_PULT.CPP|D:\GITHUBANDGITLAB\TFT_CONTROL_SOFTWARE\1.0\WIN32\SOURCE\1717SCC_PULT\ASSEMBLYINFO.CPP|D:\GITHUBANDGITLAB\TFT_CONTROL_SOFTWARE\1.0\WIN32\SOURCE\1717SCC_PULT\CALIBRATIONCONFIG.CPP|D:\GITHUBANDGITLAB\TFT_CONTROL_SOFTWARE\1.0\WIN32\SOURCE\1717SCC_PULT\CALIBRATIONPARAMETRSVIEW.CPP|D:\GITHUBANDGITLAB\TFT_CONTROL_SOFTWARE\1.0\WIN32\SOURCE\1717SCC_PULT\CRITICALSECTION.CPP|D:\GITHUBANDGITLAB\TFT_CONTROL_SOFTWARE\1.0\WIN32\SOURCE\1717SCC_PULT\DAVINCHYSETUP.CPP|D:\GITHUBANDGITLAB\TFT_CONTROL_SOFTWARE\1.0\WIN32\SOURCE\1717SCC_PULT\DEVBASECOMMANDS.CPP|D:\GITHUBANDGITLAB\TFT_CONTROL_SOFTWARE\1.0\WIN32\SOURCE\1717SCC_PULT\EVENT.CPP|D:\GITHUBANDGITLAB\TFT_CONTROL_SOFTWARE\1.0\WIN32\SOURCE\1717SCC_PULT\EXSPOSITIONPARAMS.CPP|D:\GITHUBANDGITLAB\TFT_CONTROL_SOFTWARE\1.0\WIN32\SOURCE\1717SCC_PULT\FTDI_ACTIONINFO.CPP|D:\GITHUBANDGITLAB\TFT_CONTROL_SOFTWARE\1.0\WIN32\SOURCE\1717SCC_PULT\IKY5_COMMANDS.CPP|D:\GITHUBANDGITLAB\TFT_CONTROL_SOFTWARE\1.0\WIN32\SOURCE\1717SCC_PULT\IMAGEPROCESS\CCD_AVERAGE.CPP|D:\GITHUBANDGITLAB\TFT_CONTROL_SOFTWARE\1.0\WIN32\SOURCE\1717SCC_PULT\IMAGEPROCESS\CCD_CALIBRATE.CPP|D:\GITHUBANDGITLAB\TFT_CONTROL_SOFTWARE\1.0\WIN32\SOURCE\1717SCC_PULT\IMAGEPROCESS\CCD_FITSTRUCT.CPP|D:\GITHUBANDGITLAB\TFT_CONTROL_SOFTWARE\1.0\WIN32\SOURCE\1717SCC_PULT\IMAGEPROCESS\CCD_IMGFILE.CPP|D:\GITHUBANDGITLAB\TFT_CONTROL_SOFTWARE\1.0\WIN32\SOURCE\1717SCC_PULT\IMAGEPROCESS\CCD_SUPPRESS.CPP|D:\GITHUBANDGITLAB\TFT_CONTROL_SOFTWARE\1.0\WIN32\SOURCE\1717SCC_PULT\IMAGEPROCESS\FLR_P.CPP|D:\GITHUBANDGITLAB\TFT_CONTROL_SOFTWARE\1.0\WIN32\SOURCE\1717SCC_PULT\IMAGEPROCESS\POSIZ_RECT.CPP|D:\GITHUBANDGITLAB\TFT_CONTROL_SOFTWARE\1.0\WIN32\SOURCE\1717SCC_PULT\IMAGEPROCESS\RAW_P.CPP|D:\GITHUBANDGITLAB\TFT_CONTROL_SOFTWARE\1.0\WIN32\SOURCE\1717SCC_PULT\IMAGEPROCESS\WORD_IMAGE.CPP|D:\GITHUBANDGITLAB\TFT_CONTROL_SOFTWARE\1.0\WIN32\SOURCE\1717SCC_PULT\KY5_COMMANDS_19200.CPP|D:\GITHUBANDGITLAB\TFT_CONTROL_SOFTWARE\1.0\WIN32\SOURCE\1717SCC_PULT\MXCOMM.CPP|D:\GITHUBANDGITLAB\TFT_CONTROL_SOFTWARE\1.0\WIN32\SOURCE\1717SCC_PULT\PULTCONFIG.CPP|D:\GITHUBANDGITLAB\TFT_CONTROL_SOFTWARE\1.0\WIN32\SOURCE\1717SCC_PULT\STOPWATCH_WIN.CPP
D:\GITHUBANDGITLAB\TFT_CONTROL_SOFTWARE\1.0\WIN32\SOURCE\1717SCC_PULT\X64\RELEASE\1717SCC_PULT.OBJ
D:\GITHUBANDGITLAB\TFT_CONTROL_SOFTWARE\1.0\WIN32\SOURCE\1717SCC_PULT\X64\RELEASE\DAVINCHYSETUP.OBJ
D:\GITHUBANDGITLAB\TFT_CONTROL_SOFTWARE\1.0\WIN32\SOURCE\1717SCC_PULT\X64\RELEASE\PULTCONFIG.OBJ
D:\GITHUBANDGITLAB\TFT_CONTROL_SOFTWARE\1.0\WIN32\SOURCE\1717SCC_PULT\X64\RELEASE\EXSPOSITIONPARAMS.OBJ
D:\GITHUBANDGITLAB\TFT_CONTROL_SOFTWARE\1.0\WIN32\SOURCE\1717SCC_PULT\X64\RELEASE\CCD_FITSTRUCT.OBJ
D:\GITHUBANDGITLAB\TFT_CONTROL_SOFTWARE\1.0\WIN32\SOURCE\1717SCC_PULT\X64\RELEASE\EVENT.OBJ
D:\GITHUBANDGITLAB\TFT_CONTROL_SOFTWARE\1.0\WIN32\SOURCE\1717SCC_PULT\X64\RELEASE\POSIZ_RECT.OBJ
D:\GITHUBANDGITLAB\TFT_CONTROL_SOFTWARE\1.0\WIN32\SOURCE\1717SCC_PULT\X64\RELEASE\MXCOMM.OBJ
D:\GITHUBANDGITLAB\TFT_CONTROL_SOFTWARE\1.0\WIN32\SOURCE\1717SCC_PULT\X64\RELEASE\ASSEMBLYINFO.OBJ
D:\GITHUBANDGITLAB\TFT_CONTROL_SOFTWARE\1.0\WIN32\SOURCE\1717SCC_PULT\X64\RELEASE\CCD_CALIBRATE.OBJ
D:\GITHUBANDGITLAB\TFT_CONTROL_SOFTWARE\1.0\WIN32\SOURCE\1717SCC_PULT\X64\RELEASE\FTDI_ACTIONINFO.OBJ
D:\GITHUBANDGITLAB\TFT_CONTROL_SOFTWARE\1.0\WIN32\SOURCE\1717SCC_PULT\X64\RELEASE\WORD_IMAGE.OBJ
D:\GITHUBANDGITLAB\TFT_CONTROL_SOFTWARE\1.0\WIN32\SOURCE\1717SCC_PULT\X64\RELEASE\CCD_AVERAGE.OBJ
D:\GITHUBANDGITLAB\TFT_CONTROL_SOFTWARE\1.0\WIN32\SOURCE\1717SCC_PULT\X64\RELEASE\STOPWATCH_WIN.OBJ
D:\GITHUBANDGITLAB\TFT_CONTROL_SOFTWARE\1.0\WIN32\SOURCE\1717SCC_PULT\X64\RELEASE\DEVBASECOMMANDS.OBJ
D:\GITHUBANDGITLAB\TFT_CONTROL_SOFTWARE\1.0\WIN32\SOURCE\1717SCC_PULT\X64\RELEASE\KY5_COMMANDS_19200.OBJ
D:\GITHUBANDGITLAB\TFT_CONTROL_SOFTWARE\1.0\WIN32\SOURCE\1717SCC_PULT\X64\RELEASE\CALIBRATIONCONFIG.OBJ
D:\GITHUBANDGITLAB\TFT_CONTROL_SOFTWARE\1.0\WIN32\SOURCE\1717SCC_PULT\X64\RELEASE\CCD_IMGFILE.OBJ
D:\GITHUBANDGITLAB\TFT_CONTROL_SOFTWARE\1.0\WIN32\SOURCE\1717SCC_PULT\X64\RELEASE\IKY5_COMMANDS.OBJ
D:\GITHUBANDGITLAB\TFT_CONTROL_SOFTWARE\1.0\WIN32\SOURCE\1717SCC_PULT\X64\RELEASE\RAW_P.OBJ
D:\GITHUBANDGITLAB\TFT_CONTROL_SOFTWARE\1.0\WIN32\SOURCE\1717SCC_PULT\X64\RELEASE\CALIBRATIONPARAMETRSVIEW.OBJ
D:\GITHUBANDGITLAB\TFT_CONTROL_SOFTWARE\1.0\WIN32\SOURCE\1717SCC_PULT\X64\RELEASE\FLR_P.OBJ
D:\GITHUBANDGITLAB\TFT_CONTROL_SOFTWARE\1.0\WIN32\SOURCE\1717SCC_PULT\X64\RELEASE\CRITICALSECTION.OBJ
D:\GITHUBANDGITLAB\TFT_CONTROL_SOFTWARE\1.0\WIN32\SOURCE\1717SCC_PULT\X64\RELEASE\CCD_SUPPRESS.OBJ
^D:\GITHUBANDGITLAB\TFT_CONTROL_SOFTWARE\1.0\WIN32\SOURCE\1717SCC_PULT\ASSEMBLYINFO.CPP
D:\GITHUBANDGITLAB\TFT_CONTROL_SOFTWARE\1.0\WIN32\SOURCE\1717SCC_PULT\X64\RELEASE\VC100.PDB
^D:\GITHUBANDGITLAB\TFT_CONTROL_SOFTWARE\1.0\WIN32\SOURCE\1717SCC_PULT\CALIBRATIONCONFIG.CPP
D:\GITHUBANDGITLAB\TFT_CONTROL_SOFTWARE\1.0\WIN32\SOURCE\1717SCC_PULT\X64\RELEASE\VC100.PDB
^D:\GITHUBANDGITLAB\TFT_CONTROL_SOFTWARE\1.0\WIN32\SOURCE\1717SCC_PULT\CALIBRATIONPARAMETRSVIEW.CPP
D:\GITHUBANDGITLAB\TFT_CONTROL_SOFTWARE\1.0\WIN32\SOURCE\1717SCC_PULT\X64\RELEASE\VC100.PDB
^D:\GITHUBANDGITLAB\TFT_CONTROL_SOFTWARE\1.0\WIN32\SOURCE\1717SCC_PULT\1717SCC_PULT.CPP
D:\GITHUBANDGITLAB\TFT_CONTROL_SOFTWARE\1.0\WIN32\SOURCE\1717SCC_PULT\X64\RELEASE\VC100.PDB
^D:\GITHUBANDGITLAB\TFT_CONTROL_SOFTWARE\1.0\WIN32\SOURCE\1717SCC_PULT\CRITICALSECTION.CPP
D:\GITHUBANDGITLAB\TFT_CONTROL_SOFTWARE\1.0\WIN32\SOURCE\1717SCC_PULT\X64\RELEASE\VC100.PDB
^D:\GITHUBANDGITLAB\TFT_CONTROL_SOFTWARE\1.0\WIN32\SOURCE\1717SCC_PULT\DAVINCHYSETUP.CPP
D:\GITHUBANDGITLAB\TFT_CONTROL_SOFTWARE\1.0\WIN32\SOURCE\1717SCC_PULT\X64\RELEASE\VC100.PDB
^D:\GITHUBANDGITLAB\TFT_CONTROL_SOFTWARE\1.0\WIN32\SOURCE\1717SCC_PULT\DEVBASECOMMANDS.CPP
D:\GITHUBANDGITLAB\TFT_CONTROL_SOFTWARE\1.0\WIN32\SOURCE\1717SCC_PULT\X64\RELEASE\VC100.PDB
^D:\GITHUBANDGITLAB\TFT_CONTROL_SOFTWARE\1.0\WIN32\SOURCE\1717SCC_PULT\EVENT.CPP
D:\GITHUBANDGITLAB\TFT_CONTROL_SOFTWARE\1.0\WIN32\SOURCE\1717SCC_PULT\X64\RELEASE\VC100.PDB
^D:\GITHUBANDGITLAB\TFT_CONTROL_SOFTWARE\1.0\WIN32\SOURCE\1717SCC_PULT\EXSPOSITIONPARAMS.CPP
D:\GITHUBANDGITLAB\TFT_CONTROL_SOFTWARE\1.0\WIN32\SOURCE\1717SCC_PULT\X64\RELEASE\VC100.PDB
^D:\GITHUBANDGITLAB\TFT_CONTROL_SOFTWARE\1.0\WIN32\SOURCE\1717SCC_PULT\FTDI_ACTIONINFO.CPP
D:\GITHUBANDGITLAB\TFT_CONTROL_SOFTWARE\1.0\WIN32\SOURCE\1717SCC_PULT\X64\RELEASE\VC100.PDB
^D:\GITHUBANDGITLAB\TFT_CONTROL_SOFTWARE\1.0\WIN32\SOURCE\1717SCC_PULT\IKY5_COMMANDS.CPP
D:\GITHUBANDGITLAB\TFT_CONTROL_SOFTWARE\1.0\WIN32\SOURCE\1717SCC_PULT\X64\RELEASE\VC100.PDB
^D:\GITHUBANDGITLAB\TFT_CONTROL_SOFTWARE\1.0\WIN32\SOURCE\1717SCC_PULT\IMAGEPROCESS\CCD_AVERAGE.CPP
D:\GITHUBANDGITLAB\TFT_CONTROL_SOFTWARE\1.0\WIN32\SOURCE\1717SCC_PULT\X64\RELEASE\VC100.PDB
^D:\GITHUBANDGITLAB\TFT_CONTROL_SOFTWARE\1.0\WIN32\SOURCE\1717SCC_PULT\IMAGEPROCESS\CCD_CALIBRATE.CPP
D:\GITHUBANDGITLAB\TFT_CONTROL_SOFTWARE\1.0\WIN32\SOURCE\1717SCC_PULT\X64\RELEASE\VC100.PDB
^D:\GITHUBANDGITLAB\TFT_CONTROL_SOFTWARE\1.0\WIN32\SOURCE\1717SCC_PULT\IMAGEPROCESS\CCD_FITSTRUCT.CPP
D:\GITHUBANDGITLAB\TFT_CONTROL_SOFTWARE\1.0\WIN32\SOURCE\1717SCC_PULT\X64\RELEASE\VC100.PDB
^D:\GITHUBANDGITLAB\TFT_CONTROL_SOFTWARE\1.0\WIN32\SOURCE\1717SCC_PULT\IMAGEPROCESS\CCD_IMGFILE.CPP
D:\GITHUBANDGITLAB\TFT_CONTROL_SOFTWARE\1.0\WIN32\SOURCE\1717SCC_PULT\X64\RELEASE\VC100.PDB
^D:\GITHUBANDGITLAB\TFT_CONTROL_SOFTWARE\1.0\WIN32\SOURCE\1717SCC_PULT\IMAGEPROCESS\CCD_SUPPRESS.CPP
D:\GITHUBANDGITLAB\TFT_CONTROL_SOFTWARE\1.0\WIN32\SOURCE\1717SCC_PULT\X64\RELEASE\VC100.PDB
^D:\GITHUBANDGITLAB\TFT_CONTROL_SOFTWARE\1.0\WIN32\SOURCE\1717SCC_PULT\IMAGEPROCESS\FLR_P.CPP
D:\GITHUBANDGITLAB\TFT_CONTROL_SOFTWARE\1.0\WIN32\SOURCE\1717SCC_PULT\X64\RELEASE\VC100.PDB
^D:\GITHUBANDGITLAB\TFT_CONTROL_SOFTWARE\1.0\WIN32\SOURCE\1717SCC_PULT\IMAGEPROCESS\POSIZ_RECT.CPP
D:\GITHUBANDGITLAB\TFT_CONTROL_SOFTWARE\1.0\WIN32\SOURCE\1717SCC_PULT\X64\RELEASE\VC100.PDB
^D:\GITHUBANDGITLAB\TFT_CONTROL_SOFTWARE\1.0\WIN32\SOURCE\1717SCC_PULT\IMAGEPROCESS\RAW_P.CPP
D:\GITHUBANDGITLAB\TFT_CONTROL_SOFTWARE\1.0\WIN32\SOURCE\1717SCC_PULT\X64\RELEASE\VC100.PDB
^D:\GITHUBANDGITLAB\TFT_CONTROL_SOFTWARE\1.0\WIN32\SOURCE\1717SCC_PULT\IMAGEPROCESS\WORD_IMAGE.CPP
D:\GITHUBANDGITLAB\TFT_CONTROL_SOFTWARE\1.0\WIN32\SOURCE\1717SCC_PULT\X64\RELEASE\VC100.PDB
^D:\GITHUBANDGITLAB\TFT_CONTROL_SOFTWARE\1.0\WIN32\SOURCE\1717SCC_PULT\KY5_COMMANDS_19200.CPP
D:\GITHUBANDGITLAB\TFT_CONTROL_SOFTWARE\1.0\WIN32\SOURCE\1717SCC_PULT\X64\RELEASE\VC100.PDB
^D:\GITHUBANDGITLAB\TFT_CONTROL_SOFTWARE\1.0\WIN32\SOURCE\1717SCC_PULT\MXCOMM.CPP
D:\GITHUBANDGITLAB\TFT_CONTROL_SOFTWARE\1.0\WIN32\SOURCE\1717SCC_PULT\X64\RELEASE\VC100.PDB
^D:\GITHUBANDGITLAB\TFT_CONTROL_SOFTWARE\1.0\WIN32\SOURCE\1717SCC_PULT\PULTCONFIG.CPP
D:\GITHUBANDGITLAB\TFT_CONTROL_SOFTWARE\1.0\WIN32\SOURCE\1717SCC_PULT\X64\RELEASE\VC100.PDB
^D:\GITHUBANDGITLAB\TFT_CONTROL_SOFTWARE\1.0\WIN32\SOURCE\1717SCC_PULT\STOPWATCH_WIN.CPP
D:\GITHUBANDGITLAB\TFT_CONTROL_SOFTWARE\1.0\WIN32\SOURCE\1717SCC_PULT\X64\RELEASE\VC100.PDB
^C:\USERS\HARDE\APPDATA\LOCAL\TEMP\.NETFRAMEWORK,VERSION=V4.0.ASSEMBLYATTRIBUTES.CPP
D:\GITHUBANDGITLAB\TFT_CONTROL_SOFTWARE\1.0\WIN32\SOURCE\1717SCC_PULT\X64\RELEASE\.NETFRAMEWORK,VERSION=V4.0.ASSEMBLYATTRIBUTES.OBJ
D:\GITHUBANDGITLAB\TFT_CONTROL_SOFTWARE\1.0\WIN32\SOURCE\1717SCC_PULT\X64\RELEASE\VC100.PDB
