^D:\GITHUBANDGITLAB\TFT_CONTROL_SOFTWARE\1.0\WIN32\SOURCE\1717SCC_PULT\RELEASE\.NETFRAMEWORK,VERSION=V4.0.ASSEMBLYATTRIBUTES.OBJ|D:\GITHUBANDGITLAB\TFT_CONTROL_SOFTWARE\1.0\WIN32\SOURCE\1717SCC_PULT\RELEASE\1717SCC_PULT.OBJ|D:\GITHUBANDGITLAB\TFT_CONTROL_SOFTWARE\1.0\WIN32\SOURCE\1717SCC_PULT\RELEASE\APP.RES|D:\GITHUBANDGITLAB\TFT_CONTROL_SOFTWARE\1.0\WIN32\SOURCE\1717SCC_PULT\RELEASE\ASSEMBLYINFO.OBJ|D:\GITHUBANDGITLAB\TFT_CONTROL_SOFTWARE\1.0\WIN32\SOURCE\1717SCC_PULT\RELEASE\CALIBRATIONCONFIG.OBJ|D:\GITHUBANDGITLAB\TFT_CONTROL_SOFTWARE\1.0\WIN32\SOURCE\1717SCC_PULT\RELEASE\CALIBRATIONPARAMETRSVIEW.OBJ|D:\GITHUBANDGITLAB\TFT_CONTROL_SOFTWARE\1.0\WIN32\SOURCE\1717SCC_PULT\RELEASE\CCD_AVERAGE.OBJ|D:\GITHUBANDGITLAB\TFT_CONTROL_SOFTWARE\1.0\WIN32\SOURCE\1717SCC_PULT\RELEASE\CCD_CALIBRATE.OBJ|D:\GITHUBANDGITLAB\TFT_CONTROL_SOFTWARE\1.0\WIN32\SOURCE\1717SCC_PULT\RELEASE\CCD_FITSTRUCT.OBJ|D:\GITHUBANDGITLAB\TFT_CONTROL_SOFTWARE\1.0\WIN32\SOURCE\1717SCC_PULT\RELEASE\CCD_IMGFILE.OBJ|D:\GITHUBANDGITLAB\TFT_CONTROL_SOFTWARE\1.0\WIN32\SOURCE\1717SCC_PULT\RELEASE\CCD_SUPPRESS.OBJ|D:\GITHUBANDGITLAB\TFT_CONTROL_SOFTWARE\1.0\WIN32\SOURCE\1717SCC_PULT\RELEASE\CRITICALSECTION.OBJ|D:\GITHUBANDGITLAB\TFT_CONTROL_SOFTWARE\1.0\WIN32\SOURCE\1717SCC_PULT\RELEASE\DAVINCHYSETUP.OBJ|D:\GITHUBANDGITLAB\TFT_CONTROL_SOFTWARE\1.0\WIN32\SOURCE\1717SCC_PULT\RELEASE\DEVBASECOMMANDS.OBJ|D:\GITHUBANDGITLAB\TFT_CONTROL_SOFTWARE\1.0\WIN32\SOURCE\1717SCC_PULT\RELEASE\EVENT.OBJ|D:\GITHUBANDGITLAB\TFT_CONTROL_SOFTWARE\1.0\WIN32\SOURCE\1717SCC_PULT\RELEASE\EXSPOSITIONPARAMS.OBJ|D:\GITHUBANDGITLAB\TFT_CONTROL_SOFTWARE\1.0\WIN32\SOURCE\1717SCC_PULT\RELEASE\FLR_P.OBJ|D:\GITHUBANDGITLAB\TFT_CONTROL_SOFTWARE\1.0\WIN32\SOURCE\1717SCC_PULT\RELEASE\FTDI_ACTIONINFO.OBJ|D:\GITHUBANDGITLAB\TFT_CONTROL_SOFTWARE\1.0\WIN32\SOURCE\1717SCC_PULT\RELEASE\IKY5_COMMANDS.OBJ|D:\GITHUBANDGITLAB\TFT_CONTROL_SOFTWARE\1.0\WIN32\SOURCE\1717SCC_PULT\RELEASE\KY5_COMMANDS_19200.OBJ|D:\GITHUBANDGITLAB\TFT_CONTROL_SOFTWARE\1.0\WIN32\SOURCE\1717SCC_PULT\RELEASE\MXCOMM.OBJ|D:\GITHUBANDGITLAB\TFT_CONTROL_SOFTWARE\1.0\WIN32\SOURCE\1717SCC_PULT\RELEASE\POSIZ_RECT.OBJ|D:\GITHUBANDGITLAB\TFT_CONTROL_SOFTWARE\1.0\WIN32\SOURCE\1717SCC_PULT\RELEASE\PULTCONFIG.OBJ|D:\GITHUBANDGITLAB\TFT_CONTROL_SOFTWARE\1.0\WIN32\SOURCE\1717SCC_PULT\RELEASE\RAW_P.OBJ|D:\GITHUBANDGITLAB\TFT_CONTROL_SOFTWARE\1.0\WIN32\SOURCE\1717SCC_PULT\RELEASE\STDAFX.OBJ|D:\GITHUBANDGITLAB\TFT_CONTROL_SOFTWARE\1.0\WIN32\SOURCE\1717SCC_PULT\RELEASE\STOPWATCH_WIN.OBJ|D:\GITHUBANDGITLAB\TFT_CONTROL_SOFTWARE\1.0\WIN32\SOURCE\1717SCC_PULT\RELEASE\WORD_IMAGE.OBJ
D:\GITHUBANDGITLAB\TFT_CONTROL_SOFTWARE\1.0\WIN32\SOURCE\RELEASE\1717SCC_PULT.EXE
D:\GITHUBANDGITLAB\TFT_CONTROL_SOFTWARE\1.0\WIN32\SOURCE\1717SCC_PULT\RELEASE\1717SCC_PULT.EXE.INTERMEDIATE.MANIFEST
D:\GITHUBANDGITLAB\TFT_CONTROL_SOFTWARE\1.0\WIN32\SOURCE\RELEASE\1717SCC_PULT.PDB
